{
  "weights_path": null,
  "results": {
    "test_set": {},
    "training_set": {}
  },
  "dataset": "placebot_detection_top1000",
  "configuration": {
    "rate3": "null",
    "batch": "1",
    "rates": "0.0003",
    "steps": "200000",
    "step3": "null",
    "step1": "900000",
    "decay_rate": "null",
    "step2": "1200000",
    "rate1": "0.00003",
    "decay_step": "null",
    "rate2": "0.000003",
    "subdivisions": "null",
    "rate_mode": "manualStep"
  },
  "model": "faster_rcnn_resnet101_coco",
  "status": "failed",
  "name": "training_2019_jan_v52"
}