{
	"images": {
		"type": "directory",
		"accepted_types":[".jpeg", ".jpg", ".png"],
		"contents_equal":["labels"]
	
	},

	"labels":{
		"type": "directory", 
		"accepted_types":[".txt", ".json"],
		"contents_equal": ["images"]
	
	},
	
	"classes.txt":{
		"type": "file",
		"accepted_types": [],
		"contents_equal": []
	
	}
}